%YAML 1.1
%TAG !u! tag:unity3d.com,2011:
--- !u!1045 &1
EditorBuildSettings:
  m_ObjectHideFlags: 0
  serializedVersion: 2
  m_Scenes:
  - enabled: 1
    path: Assets/Level01.unity
    guid: 57f299cec2d8045eeae27f4d8fc9220e
  - enabled: 1
    path: Assets/Level02.unity
    guid: b88fbac550af14ae0b552cd8681f01dd
  - enabled: 1
    path: Assets/Level03.unity
    guid: 526d2f88ab615ac40ab769a2fba4410e
  - enabled: 1
    path: Assets/SatelliteWall.unity
    guid: bd5ff3655d2d1424b95b052685f8bfca
  - enabled: 1
    path: Assets/WormHoleFun.unity
    guid: 721be0aea7f300846a20af7dd7ecbf38
  m_configObjects: {}
